{ "height":8,
 "layers":[
        {
         "data":[26, 26, 26, 26, 26, 26, 26, 26, 26, 26, 27, 27, 27, 26, 27, 27, 27, 26, 26, 27, 27, 22, 8, 27, 4, 27, 26, 27, 27, 27, 27, 7, 27, 26, 27, 26, 26, 27, 27, 27, 26, 27, 27, 26, 26, 26, 27, 27, 26, 26, 26, 26, 26, 26, 26, 27, 24, 27, 26, 0, 0, 0, 0, 26, 26, 3, 26, 26, 0, 0, 0, 0],
         "height":8,
         "name":"meta",
         "opacity":1,
         "properties":
            {
             "ramp_bottom_right":3,
             "ramp_top_left":3,
             "ramp_top_right":1,
             "startX":0,
             "startY":4,
             "velocityX":1,
             "velocityY":0
            },
         "propertytypes":
            {
             "ramp_bottom_right":"float",
             "ramp_top_left":"float",
             "ramp_top_right":"float",
             "startX":"float",
             "startY":"float",
             "velocityX":"float",
             "velocityY":"float"
            },
         "type":"tilelayer",
         "visible":true,
         "width":9,
         "x":0,
         "y":0
        }],
 "nextobjectid":1,
 "orientation":"orthogonal",
 "renderorder":"right-down",
 "tileheight":64,
 "tilesets":[
        {
         "columns":0,
         "firstgid":1,
         "margin":0,
         "name":"tiles",
         "spacing":0,
         "tilecount":27,
         "tileheight":64,
         "tiles":
            {
             "0":
                {
                 "image":"..\/img\/ball.png"
                },
             "1":
                {
                 "image":"..\/img\/empty.png"
                },
             "10":
                {
                 "image":"..\/img\/portal_enter_left.png"
                },
             "11":
                {
                 "image":"..\/img\/portal_enter_right.png"
                },
             "12":
                {
                 "image":"..\/img\/portal_enter_up.png"
                },
             "13":
                {
                 "image":"..\/img\/portal_exit_down.png"
                },
             "14":
                {
                 "image":"..\/img\/portal_exit_left.png"
                },
             "15":
                {
                 "image":"..\/img\/portal_exit_right.png"
                },
             "16":
                {
                 "image":"..\/img\/portal_exit_up.png"
                },
             "17":
                {
                 "image":"..\/img\/ramp_bottom_left.png"
                },
             "18":
                {
                 "image":"..\/img\/ramp_bottom_right.png"
                },
             "19":
                {
                 "image":"..\/img\/ramp_top_left.png"
                },
             "2":
                {
                 "image":"..\/img\/goal.png"
                },
             "20":
                {
                 "image":"..\/img\/ramp_top_right.png"
                },
             "21":
                {
                 "image":"..\/img\/switch_off.png"
                },
             "22":
                {
                 "image":"..\/img\/switch_on.png"
                },
             "23":
                {
                 "image":"..\/img\/togglable_block.png"
                },
             "24":
                {
                 "image":"..\/img\/togglable_empty.png"
                },
             "25":
                {
                 "image":"..\/img\/wall.png"
                },
             "26":
                {
                 "image":"..\/img\/floor.png"
                },
             "3":
                {
                 "image":"..\/img\/ice.png"
                },
             "4":
                {
                 "image":"..\/img\/ice_weakened.png"
                },
             "5":
                {
                 "image":"..\/img\/oneway_down.png"
                },
             "6":
                {
                 "image":"..\/img\/oneway_left.png"
                },
             "7":
                {
                 "image":"..\/img\/oneway_right.png"
                },
             "8":
                {
                 "image":"..\/img\/oneway_up.png"
                },
             "9":
                {
                 "image":"..\/img\/portal_enter_down.png"
                }
            },
         "tilewidth":64
        }],
 "tilewidth":64,
 "version":1,
 "width":9
}